{
  "authors": [
    "VialSoft"
  ],
  "description": "VialSoft",
  "version": "1.0.0-*",

  "compilationOptions": {
    "warningsAsErrors": true
  },
  "webroot": "wwwroot",
  "userSecretsId": "aspnet5-VialSoft.Web-17953c6e-be46-4977-aa87-ea6ba99f42e2",
  "dependencies": {
    "Microsoft.AspNet.Server.Kestrel": "1.0.0-rc1-final",
    "EntityFramework.InMemory": "7.0.0-rc1-final",
    "EntityFramework.MicrosoftSqlServer": "7.0.0-rc1-final",
    "EntityFramework.Commands": "7.0.0-rc1-final",
    "Microsoft.AspNet.Mvc": "6.0.0-rc1-final",
    "Microsoft.AspNet.Mvc.TagHelpers": "6.0.0-rc1-final",
    "Microsoft.AspNet.Authentication.Cookies": "1.0.0-rc1-final",
    "Microsoft.AspNet.Diagnostics": "1.0.0-rc1-final",
    "Microsoft.AspNet.Diagnostics.Entity": "7.0.0-rc1-final",
    "Microsoft.AspNet.Identity.EntityFramework": "3.0.0-rc1-final",
    "Microsoft.AspNet.Session": "1.0.0-rc1-final",
    "Microsoft.AspNet.IISPlatformHandler": "1.0.0-rc1-final",
    "Microsoft.AspNet.StaticFiles": "1.0.0-rc1-final",
    "Microsoft.AspNet.Tooling.Razor": "1.0.0-rc1-final",
    "Microsoft.Extensions.Configuration.Abstractions": "1.0.0-rc1-final",
    "Microsoft.Extensions.Configuration.Json": "1.0.0-rc1-final",
    "Microsoft.Extensions.Configuration.UserSecrets": "1.0.0-rc1-final",
    "Microsoft.Extensions.Logging": "1.0.0-rc1-final",
    "Microsoft.Extensions.Logging.Console": "1.0.0-rc1-final",
    "Microsoft.IdentityModel.Clients.ActiveDirectory": "3.5.208051316-alpha",
    "Microsoft.VisualStudio.Web.BrowserLink.Loader": "14.0.0-rc1-final",
    "Microsoft.AspNet.Mvc.WebApiCompatShim": "6.0.0-rc1-final",
    "Microsoft.ApplicationInsights.AspNet": "1.0.0-rc1-*",
    "System.Runtime.Serialization.Json": "4.0.1-beta-*",
    "Newtonsoft.Json": "7.0.1",
    "VialSoft.Data": "",
    "VialSoft.Model": "",
    "VialSoft.API": ""
  },

  "commands": {
    "web": "Microsoft.AspNet.Server.Kestrel",
    "ef": "EntityFramework.Commands",
    "kestrel": "Microsoft.AspNet.Hosting --server Microsoft.AspNet.Server.Kestrel --config hosting.ini"
  },

  "frameworks": {
    "dnx451": { },
    "dnxcore50": {
      "dependencies": {
        "System.Globalization": "4.0.11-beta-23409",
        "System.Text.Encoding": "4.0.11-beta-23409"
      }
    }
  },

  "exclude": [
    "wwwroot",
    "node_modules",
    "bower_components"
  ],
  "publishExclude": [
    "node_modules",
    "bower_components",
    "**.xproj",
    "**.user",
    "**.vspscc"
  ],
  "scripts": {
    "prepublish": [ "npm install", "bower install", "gulp clean", "gulp default" ]
  }
}
